""
"Test Method","UG Lab Glass 3 Pt Bend mm_N.msm"
"Sample I. D.","AR.mss"
"Specimen Number","6"

"Load (N)","Crosshead (mm)"

-0.8,0.00000
-3.2,0.00000
-0.8,0.00200
-1.5,0.00200
0.7,0.00400
-1.2,0.00400
1.3,0.00600
3.0,0.00600
0.8,0.00600
2.0,0.00800
0.5,0.00800
1.0,0.01000
2.6,0.01000
3.5,0.01000
4.2,0.01200
3.1,0.01200
2.6,0.01400
3.2,0.01400
3.3,0.01600
4.0,0.01600
4.7,0.01600
4.5,0.01800
6.3,0.01800
5.3,0.02000
6.0,0.02000
6.7,0.02200
7.4,0.02200
7.9,0.02200
7.2,0.02400
5.5,0.02400
8.2,0.02600
6.7,0.02600
9.4,0.02600
9.0,0.02800
9.2,0.02800
8.4,0.03000
8.6,0.03000
10.9,0.03200
10.3,0.03200
10.8,0.03200
10.6,0.03400
9.7,0.03400
11.3,0.03600
12.3,0.03600
10.8,0.03800
12.5,0.03800
12.1,0.03800
13.4,0.04000
14.2,0.04000
13.1,0.04000
13.8,0.04200
12.9,0.04200
15.0,0.04400
14.0,0.04400
15.1,0.04600
13.5,0.04600
15.7,0.04800
16.0,0.04800
15.3,0.04800
14.8,0.05000
16.6,0.05000
17.5,0.05000
16.6,0.05200
16.4,0.05200
17.8,0.05400
18.7,0.05400
19.0,0.05600
18.3,0.05600
19.1,0.05600
18.8,0.05800
20.8,0.05800
18.7,0.06000
20.4,0.06000
22.2,0.06200
22.7,0.06200
23.4,0.06200
22.0,0.06400
22.9,0.06400
24.8,0.06400
22.8,0.06600
21.7,0.06600
22.1,0.06800
22.7,0.06800
24.7,0.07000
25.2,0.07000
24.2,0.07200
24.6,0.07200
26.7,0.07200
26.0,0.07400
26.8,0.07400
26.5,0.07400
25.9,0.07600
27.3,0.07600
28.8,0.07800
29.5,0.07800
27.3,0.08000
28.8,0.08000
26.5,0.08000
27.7,0.08200
27.4,0.08200
27.8,0.08400
28.7,0.08400
28.8,0.08600
28.6,0.08600
31.1,0.08800
32.5,0.08800
30.0,0.08800
31.8,0.09000
29.2,0.09000
32.4,0.09000
31.5,0.09200
31.2,0.09200
31.0,0.09400
34.2,0.09400
36.7,0.09600
34.8,0.09600
34.2,0.09600
34.3,0.09800
34.8,0.09800
34.5,0.10000
33.4,0.10000
34.1,0.10200
36.1,0.10200
33.9,0.10200
36.0,0.10400
37.8,0.10400
36.4,0.10400
35.8,0.10600
37.6,0.10600
38.1,0.10800
38.9,0.10800
37.0,0.11000
38.9,0.11000
37.6,0.11200
37.5,0.11200
38.4,0.11200
37.8,0.11400
38.3,0.11400
38.4,0.11400
39.4,0.11600
39.5,0.11600
40.6,0.11800
40.7,0.11800
40.0,0.12000
42.0,0.12000
42.1,0.12000
43.4,0.12200
41.8,0.12200
43.7,0.12400
44.0,0.12400
44.8,0.12600
45.6,0.12600
44.9,0.12600
44.3,0.12800
46.3,0.12800
47.6,0.12800
47.4,0.13000
46.9,0.13000
46.9,0.13200
47.7,0.13200
47.4,0.13400
48.5,0.13400
45.8,0.13600
47.6,0.13600
47.2,0.13600
48.2,0.13800
48.1,0.13800
48.7,0.13800
48.6,0.14000
49.7,0.14200
52.0,0.14200
51.8,0.14200
50.2,0.14400
53.2,0.14400
51.8,0.14400
52.7,0.14600
53.0,0.14600
52.1,0.14800
52.7,0.14800
53.1,0.15000
54.1,0.15000
53.4,0.15200
54.4,0.15200
55.0,0.15200
55.3,0.15400
55.7,0.15400
56.5,0.15400
57.0,0.15600
56.8,0.15600
55.2,0.15800
56.5,0.15800
58.2,0.16000
59.2,0.16000
59.2,0.16000
58.9,0.16200
60.4,0.16200
59.9,0.16400
59.8,0.16400
58.0,0.16600
60.8,0.16600
60.0,0.16600
59.4,0.16800
60.7,0.16800
61.7,0.16800
60.3,0.17000
59.9,0.17000
61.8,0.17200
64.2,0.17200
63.7,0.17400
61.8,0.17400
62.0,0.17600
64.6,0.17600
66.5,0.17600
66.2,0.17800
62.2,0.17800
61.5,0.17800
64.9,0.18000
63.7,0.18200
64.4,0.18200
66.1,0.18200
66.9,0.18400
69.0,0.18400
66.2,0.18400
68.1,0.18600
67.2,0.18600
66.0,0.18800
68.0,0.18800
68.5,0.19000
66.5,0.19000
66.8,0.19200
68.0,0.19200
68.8,0.19200
71.6,0.19400
70.3,0.19400
71.1,0.19400
72.9,0.19600
70.1,0.19600
71.9,0.19800
71.3,0.19800
72.4,0.20000
71.5,0.20000
73.0,0.20000
72.6,0.20200
72.3,0.20200
70.6,0.20400
72.8,0.20400
72.7,0.20600
74.8,0.20600
75.0,0.20600
77.5,0.20800
75.3,0.20800
75.1,0.20800
77.6,0.21000
77.6,0.21000
79.0,0.21200
75.8,0.21200
76.4,0.21400
77.4,0.21400
79.2,0.21600
79.8,0.21600
78.5,0.21600
77.9,0.21800
80.4,0.21800
82.8,0.22000
80.6,0.22000
82.6,0.22200
82.0,0.22200
79.9,0.22200
82.8,0.22400
81.3,0.22400
82.8,0.22400
81.5,0.22600
80.1,0.22600
84.8,0.22800
85.5,0.22800
86.7,0.23000
86.2,0.23000
85.3,0.23200
85.6,0.23200
87.8,0.23200
84.8,0.23400
86.5,0.23400
84.6,0.23400
88.2,0.23600
86.7,0.23800
86.9,0.23800
85.8,0.23800
87.9,0.24000
88.7,0.24000
89.5,0.24000
92.2,0.24200
91.2,0.24200
90.2,0.24400
91.4,0.24400
91.6,0.24600
89.9,0.24600
88.5,0.24800
90.8,0.24800
93.3,0.24800
91.3,0.25000
92.1,0.25000
92.8,0.25000
93.2,0.25200
94.4,0.25200
94.2,0.25400
93.7,0.25400
94.5,0.25600
93.5,0.25600
95.9,0.25600
94.1,0.25800
94.6,0.25800
95.2,0.25800
96.4,0.26000
95.9,0.26000
100.3,0.26200
97.7,0.26200
96.7,0.26400
96.8,0.26400
97.1,0.26400
99.4,0.26600
99.5,0.26600
97.9,0.26800
99.7,0.26800
98.2,0.27000
98.1,0.27000
100.4,0.27000
98.7,0.27200
101.5,0.27200
101.1,0.27200
102.5,0.27400
103.5,0.27400
102.5,0.27600
101.5,0.27600
101.8,0.27800
104.2,0.27800
103.1,0.28000
103.3,0.28000
103.5,0.28000
103.4,0.28200
105.1,0.28200
104.8,0.28200
106.6,0.28400
107.4,0.28400
106.2,0.28600
106.0,0.28600
107.1,0.28800
107.9,0.28800
105.3,0.28800
106.0,0.29000
106.5,0.29000
108.5,0.29200
108.6,0.29200
107.9,0.29400
107.7,0.29400
109.2,0.29400
109.4,0.29600
109.8,0.29600
110.1,0.29600
111.5,0.29800
110.8,0.29800
110.1,0.30000
111.9,0.30000
111.6,0.30200
110.3,0.30200
110.3,0.30400
114.6,0.30400
113.4,0.30400
115.0,0.30600
114.0,0.30600
112.6,0.30600
114.9,0.30800
114.5,0.31000
115.6,0.31000
116.7,0.31000
115.0,0.31200
115.7,0.31200
118.1,0.31200
118.4,0.31400
116.8,0.31400
115.8,0.31600
118.7,0.31600
119.9,0.31800
120.5,0.31800
120.3,0.32000
119.8,0.32000
121.6,0.32000
121.9,0.32200
121.0,0.32200
121.9,0.32200
121.1,0.32400
121.1,0.32400
123.4,0.32600
121.7,0.32600
121.3,0.32800
124.2,0.32800
125.8,0.32800
126.0,0.33000
124.5,0.33000
125.7,0.33200
124.8,0.33200
124.5,0.33400
126.3,0.33400
122.9,0.33400
125.1,0.33600
125.3,0.33600
126.3,0.33800
127.1,0.33800
126.9,0.33800
128.7,0.34000
127.8,0.34000
127.6,0.34200
128.9,0.34200
128.1,0.34400
130.7,0.34400
128.3,0.34400
128.8,0.34600
130.2,0.34600
129.4,0.34800
131.4,0.34800
130.5,0.35000
130.7,0.35000
131.2,0.35000
131.4,0.35200
131.2,0.35200
132.7,0.35400
130.5,0.35400
136.6,0.35400
135.4,0.35600
133.8,0.35600
134.9,0.35800
134.7,0.35800
133.9,0.36000
135.1,0.36000
135.5,0.36000
136.6,0.36200
136.5,0.36200
137.5,0.36400
138.6,0.36400
138.3,0.36600
137.6,0.36600
137.5,0.36600
135.7,0.36800
138.0,0.36800
137.1,0.36800
138.8,0.37000
138.3,0.37000
138.9,0.37200
140.8,0.37200
140.7,0.37400
140.4,0.37400
141.3,0.37600
141.7,0.37600
144.7,0.37600
140.4,0.37800
140.3,0.37800
142.6,0.37800
140.8,0.38000
141.4,0.38000
144.3,0.38200
144.6,0.38200
141.5,0.38400
143.3,0.38400
144.6,0.38400
145.3,0.38600
143.6,0.38600
145.5,0.38800
145.9,0.38800
146.6,0.39000
147.1,0.39000
146.8,0.39000
147.1,0.39200
146.3,0.39200
148.2,0.39200
149.9,0.39400
150.3,0.39400
149.0,0.39600
150.0,0.39600
148.7,0.39800
151.2,0.39800
151.0,0.40000
151.3,0.40000
148.8,0.40000
150.1,0.40200
151.4,0.40200
150.2,0.40200
151.5,0.40400
151.0,0.40400
152.2,0.40600
154.1,0.40600
154.8,0.40800
153.5,0.40800
154.8,0.40800
155.3,0.41000
156.3,0.41000
156.4,0.41200
155.9,0.41200
155.9,0.41400
154.7,0.41400
157.7,0.41400
156.8,0.41600
157.9,0.41600
156.3,0.41800
157.5,0.41800
158.8,0.41800
159.2,0.42000
159.9,0.42000
158.8,0.42200
159.5,0.42200
161.2,0.42400
160.8,0.42400
160.0,0.42400
159.4,0.42600
160.0,0.42600
161.9,0.42800
162.8,0.42800
163.7,0.43000
163.1,0.43000
161.7,0.43000
164.1,0.43200
165.5,0.43200
164.6,0.43400
163.7,0.43400
163.9,0.43400
162.8,0.43600
164.8,0.43600
165.2,0.43800
62.8,0.43800
-3.8,0.43800


