""
"Test Method","UG Lab Glass 3 Pt Bend mm_N.msm"
"Sample I. D.","Etched.mss"
"Specimen Number","7"

"Load (N)","Crosshead (mm)"

3.1,0.00000
0.6,0.00200
3.1,0.00400
1.2,0.00600
2.4,0.00800
2.8,0.01000
2.6,0.01000
3.0,0.01200
1.9,0.01400
-1.0,0.01600
2.7,0.01800
3.2,0.01800
5.8,0.02000
2.0,0.02200
1.0,0.02400
2.3,0.02600
3.2,0.02600
4.1,0.02800
4.0,0.03000
0.8,0.03200
3.1,0.03400
2.2,0.03600
4.5,0.03600
1.5,0.03800
2.0,0.04000
5.4,0.04200
3.4,0.04400
3.4,0.04600
1.5,0.04800
1.8,0.04800
3.2,0.05000
2.5,0.05200
2.3,0.05400
3.7,0.05600
2.3,0.05800
0.3,0.05800
2.2,0.06000
2.6,0.06200
3.3,0.06400
2.0,0.06600
2.4,0.06600
1.7,0.06800
0.4,0.07000
1.1,0.07200
0.8,0.07400
1.9,0.07600
1.4,0.07600
2.5,0.08000
3.8,0.08000
4.1,0.08200
2.9,0.08400
3.7,0.08600
4.3,0.08800
5.0,0.09000
1.1,0.09000
2.0,0.09200
1.5,0.09400
2.2,0.09600
4.4,0.09800
2.3,0.09800
2.9,0.10000
2.7,0.10200
2.9,0.10400
3.1,0.10600
4.4,0.10800
0.5,0.10800
3.0,0.11000
1.8,0.11200
1.7,0.11400
1.8,0.11600
3.2,0.11800
2.6,0.12000
2.3,0.12000
1.9,0.12200
2.5,0.12400
1.5,0.12600
1.8,0.12800
4.5,0.13000
4.1,0.13000
3.4,0.13200
0.8,0.13400
3.4,0.13600
2.6,0.13800
0.4,0.13800
5.1,0.14000
1.4,0.14200
3.0,0.14400
4.3,0.14600
1.9,0.14600
0.8,0.14800
1.5,0.15000
1.5,0.15200
6.0,0.15400
1.9,0.15600
2.8,0.15800
-0.1,0.16000
0.5,0.16000
2.9,0.16200
2.3,0.16400
3.4,0.16600
1.7,0.16800
1.2,0.17000
3.4,0.17000
0.4,0.17200
4.5,0.17400
2.1,0.17600
2.9,0.17800
1.8,0.17800
1.7,0.18000
2.5,0.18200
2.5,0.18400
2.3,0.18600
1.9,0.18800
0.5,0.18800
2.9,0.19000
3.6,0.19200
2.1,0.19400
3.1,0.19600
1.4,0.19800
1.7,0.20000
0.5,0.20000
1.9,0.20200
2.5,0.20400
2.2,0.20600
2.5,0.20800
1.5,0.21000
2.5,0.21000
3.4,0.21200
1.9,0.21400
2.5,0.21600
4.2,0.21800
2.2,0.21800
4.7,0.22000
5.5,0.22200
3.0,0.22400
3.0,0.22600
2.2,0.22600
2.2,0.22800
3.7,0.23000
2.0,0.23200
1.9,0.23400
1.2,0.23600
3.9,0.23600
3.6,0.23800
2.9,0.24000
3.9,0.24200
3.1,0.24400
1.2,0.24600
2.1,0.24800
3.4,0.24800
2.0,0.25000
3.7,0.25200
2.3,0.25400
3.0,0.25600
1.5,0.25800
-0.6,0.25800
2.6,0.26000
2.5,0.26200
4.3,0.26400
2.0,0.26600
1.7,0.26600
1.4,0.26800
3.8,0.27000
4.2,0.27200
3.6,0.27400
1.5,0.27400
3.8,0.27600
3.8,0.27800
4.8,0.28000
5.2,0.28200
7.1,0.28400
8.1,0.28600
8.2,0.28800
7.9,0.28800
7.6,0.29000
7.7,0.29200
11.0,0.29400
8.3,0.29600
10.5,0.29800
12.1,0.29800
10.0,0.30000
10.3,0.30200
13.6,0.30400
12.6,0.30600
16.3,0.30600
13.9,0.30800
15.7,0.31000
16.4,0.31200
16.3,0.31400
16.3,0.31600
16.5,0.31600
20.7,0.32000
20.6,0.32000
22.3,0.32200
19.9,0.32400
19.0,0.32600
19.6,0.32800
22.3,0.32900
22.6,0.33000
23.5,0.33200
23.4,0.33400
23.8,0.33600
23.8,0.33800
27.0,0.33800
28.9,0.34000
27.2,0.34200
27.6,0.34400
28.7,0.34600
27.3,0.34600
29.5,0.34800
31.4,0.35000
30.4,0.35200
31.8,0.35400
33.0,0.35600
33.7,0.35600
32.9,0.35800
32.6,0.36000
34.6,0.36200
35.0,0.36400
36.3,0.36600
35.8,0.36800
38.3,0.36800
40.4,0.37000
37.8,0.37200
40.0,0.37400
41.7,0.37600
38.8,0.37800
42.5,0.37800
44.3,0.38000
43.0,0.38200
43.8,0.38400
44.7,0.38600
46.5,0.38600
46.7,0.38800
46.3,0.39000
47.1,0.39200
47.3,0.39400
47.9,0.39600
49.0,0.39600
47.9,0.39800
48.1,0.40000
49.5,0.40200
50.3,0.40400
49.8,0.40600
52.6,0.40800
54.0,0.40800
51.3,0.41000
51.7,0.41200
53.8,0.41400
53.8,0.41600
56.9,0.41800
55.1,0.41800
54.7,0.42000
58.1,0.42200
56.2,0.42400
57.8,0.42600
58.5,0.42600
60.4,0.42800
62.1,0.43000
61.5,0.43200
62.0,0.43400
62.0,0.43600
62.6,0.43600
64.0,0.43800
62.6,0.44000
65.1,0.44200
66.5,0.44400
64.5,0.44600
67.7,0.44800
67.2,0.44800
68.7,0.45000
70.7,0.45200
69.4,0.45400
71.1,0.45600
69.6,0.45800
71.7,0.45800
72.3,0.46000
73.6,0.46200
74.6,0.46400
73.7,0.46600
75.3,0.46600
75.4,0.46800
75.2,0.47000
74.9,0.47200
78.7,0.47400
77.9,0.47600
79.8,0.47600
77.2,0.47800
80.4,0.48000
80.2,0.48200
81.9,0.48400
84.4,0.48600
83.0,0.48800
83.7,0.48800
82.9,0.49000
85.1,0.49200
85.2,0.49400
85.1,0.49600
85.9,0.49800
88.2,0.49800
87.3,0.50000
87.9,0.50200
89.2,0.50400
88.5,0.50600
92.1,0.50700
90.4,0.50800
90.4,0.51000
90.4,0.51200
91.4,0.51400
92.7,0.51600
93.7,0.51800
94.6,0.52000
97.0,0.52000
96.1,0.52200
96.7,0.52400
98.0,0.52600
97.1,0.52800
99.7,0.53000
99.5,0.53000
102.0,0.53200
100.8,0.53400
99.1,0.53600
101.9,0.53800
101.8,0.53800
102.1,0.54000
104.4,0.54200
104.7,0.54400
104.9,0.54600
104.7,0.54600
104.9,0.54800
104.4,0.55000
107.3,0.55200
109.0,0.55400
108.6,0.55600
107.4,0.55600
108.3,0.55800
108.4,0.56000
112.4,0.56200
114.2,0.56400
113.4,0.56400
115.5,0.56800
112.7,0.56800
115.1,0.57000
113.3,0.57200
116.4,0.57400
117.7,0.57600
117.8,0.57800
116.2,0.57800
116.0,0.58000
119.8,0.58200
120.2,0.58400
118.3,0.58600
122.5,0.58600
121.7,0.58800
122.5,0.59000
122.9,0.59200
123.3,0.59400
123.2,0.59600
124.1,0.59600
126.1,0.59800
127.5,0.60000
126.2,0.60200
127.0,0.60400
128.4,0.60600
129.1,0.60800
130.1,0.60800
131.3,0.61000
127.8,0.61200
130.8,0.61400
129.7,0.61600
131.2,0.61800
135.1,0.61800
131.4,0.62000
135.8,0.62200
134.9,0.62400
134.8,0.62600
136.3,0.62600
138.1,0.62800
136.9,0.63000
139.4,0.63200
138.4,0.63400
139.1,0.63600
139.8,0.63600
140.1,0.64000
142.1,0.64000
142.3,0.64200
144.9,0.64400
142.8,0.64600
142.7,0.64800
142.2,0.64800
144.9,0.65000
145.4,0.65200
148.0,0.65400
147.6,0.65600
148.1,0.65800
147.7,0.65800
150.8,0.66000
151.7,0.66200
150.6,0.66400
151.1,0.66600
152.2,0.66600
152.7,0.66800
156.0,0.67000
153.0,0.67200
153.8,0.67400
153.3,0.67600
157.5,0.67600
155.2,0.67800
156.3,0.68000
159.5,0.68200
159.2,0.68400
159.0,0.68600
159.8,0.68800
162.1,0.68800
162.7,0.69000
160.9,0.69200
163.3,0.69400
164.8,0.69600
166.4,0.69800
166.2,0.69800
167.2,0.70000
165.4,0.70200
166.3,0.70400
168.1,0.70600
169.5,0.70600
168.9,0.70800
168.4,0.71000
168.8,0.71200
169.9,0.71400
171.5,0.71600
172.3,0.71600
172.2,0.71800
174.4,0.72000
173.0,0.72200
175.9,0.72400
176.1,0.72600
175.0,0.72800
179.0,0.72800
176.7,0.73000
176.3,0.73200
180.6,0.73400
180.1,0.73600
182.7,0.73800
181.5,0.73800
184.4,0.74000
183.9,0.74200
183.5,0.74400
185.2,0.74600
183.4,0.74600
185.2,0.74800
184.8,0.75000
186.6,0.75200
186.2,0.75400
190.1,0.75600
186.9,0.75600
189.4,0.75800
188.7,0.76000
189.4,0.76200
191.5,0.76400
189.9,0.76600
192.5,0.76800
191.1,0.76800
193.6,0.77000
193.0,0.77200
194.6,0.77400
197.6,0.77600
197.3,0.77800
194.5,0.77800
196.4,0.78000
197.0,0.78200
199.1,0.78400
200.0,0.78600
198.1,0.78600
203.2,0.78800
201.6,0.79000
201.2,0.79200
201.0,0.79400
203.3,0.79600
204.4,0.79600
204.6,0.79800
204.5,0.80000
205.2,0.80200
204.4,0.80400
204.5,0.80600
208.4,0.80800
208.6,0.80800
209.1,0.81000
208.2,0.81200
208.9,0.81400
209.6,0.81600
210.9,0.81800
214.9,0.81800
211.2,0.82000
214.9,0.82200
211.9,0.82400
212.4,0.82600
215.3,0.82700
216.6,0.82800
213.5,0.83000
219.3,0.83200
217.6,0.83400
217.7,0.83600
216.8,0.83800
218.1,0.84000
221.6,0.84000
219.8,0.84200
222.8,0.84400
223.3,0.84600
222.4,0.84800
223.6,0.85000
224.1,0.85000
225.0,0.85200
226.2,0.85400
224.7,0.85600
228.5,0.85800
225.6,0.85800
227.5,0.86000
231.2,0.86200
230.0,0.86400
231.1,0.86600
232.9,0.86800
231.4,0.86800
233.3,0.87000
232.0,0.87200
236.7,0.87400
236.1,0.87600
236.0,0.87600
235.3,0.88000
236.6,0.88000
237.2,0.88200
237.7,0.88400
238.7,0.88600
238.8,0.88800
238.6,0.88800
239.1,0.89000
239.6,0.89200
241.2,0.89400
242.9,0.89600
243.8,0.89800
243.5,0.89800
244.3,0.90000
245.4,0.90200
243.8,0.90400
243.7,0.90600
246.1,0.90600
249.1,0.90800
249.6,0.91000
249.7,0.91200
248.9,0.91400
250.9,0.91600
251.2,0.91600
252.4,0.91800
253.8,0.92000
252.0,0.92200
251.4,0.92400
253.4,0.92600
255.6,0.92800
254.3,0.92800
255.7,0.93000
256.1,0.93200
258.1,0.93400
258.0,0.93600
258.3,0.93800
259.4,0.93800
261.0,0.94000
261.2,0.94200
260.3,0.94400
259.9,0.94600
262.1,0.94600
262.5,0.94800
263.2,0.95000
265.5,0.95200
264.6,0.95400
266.7,0.95600
265.5,0.95600
266.3,0.95800
266.2,0.96000
267.7,0.96200
270.9,0.96400
269.7,0.96600
270.0,0.96800
269.3,0.96800
272.9,0.97000
273.4,0.97200
273.4,0.97400
272.5,0.97600
274.0,0.97800
274.0,0.97800
275.5,0.98000
276.2,0.98200
276.8,0.98400
276.8,0.98600
279.1,0.98600
281.3,0.98800
278.9,0.99000
279.1,0.99200
281.5,0.99400
281.2,0.99600
282.4,0.99600
282.8,0.99800
283.6,1.00000
283.4,1.00200
283.8,1.00400
283.8,1.00600
287.5,1.00800
286.7,1.00800
288.1,1.01000
287.3,1.01200
285.8,1.01400
289.6,1.01600
288.8,1.01800
290.8,1.01800
291.6,1.02000
291.1,1.02200
293.5,1.02400
291.2,1.02600
3.3,1.02600


