""
"Test Method","UG Lab Glass 3 Pt Bend mm_N.msm"
"Sample I. D.","Etched.mss"
"Specimen Number","9"

"Load (N)","Crosshead (mm)"

-1.2,0.00000
0.3,0.00000
0.9,0.00200
2.4,0.00200
0.5,0.00400
1.0,0.00400
1.7,0.00400
0.8,0.00600
-0.5,0.00600
-1.9,0.00800
-2.2,0.00800
1.1,0.01000
-2.4,0.01000
-1.1,0.01000
-0.1,0.01200
-0.5,0.01200
1.3,0.01200
-0.4,0.01400
-0.7,0.01400
1.1,0.01600
-1.6,0.01600
0.9,0.01800
0.1,0.01800
0.2,0.02000
-0.7,0.02000
-1.0,0.02000
0.8,0.02200
1.9,0.02200
0.4,0.02200
0.5,0.02400
-1.7,0.02400
1.4,0.02600
1.0,0.02600
1.8,0.02800
-0.1,0.02800
-0.9,0.02800
-0.7,0.03000
-1.7,0.03000
-0.4,0.03200
-0.4,0.03200
-1.7,0.03400
1.0,0.03400
1.9,0.03600
2.9,0.03600
0.1,0.03600
0.3,0.03800
0.1,0.03800
1.2,0.03800
-1.4,0.04000
-0.2,0.04000
-1.9,0.04200
-2.1,0.04200
-0.8,0.04400
0.2,0.04400
-0.7,0.04400
0.2,0.04600
-0.2,0.04600
0.9,0.04800
0.6,0.04800
0.8,0.05000
0.0,0.05000
-0.6,0.05000
-0.8,0.05200
-0.3,0.05200
0.6,0.05200
0.8,0.05400
-0.4,0.05400
-0.2,0.05600
0.2,0.05600
0.7,0.05800
-0.5,0.05800
-2.0,0.06000
-0.5,0.06000
3.1,0.06000
1.5,0.06200
-3.1,0.06200
-0.7,0.06200
1.5,0.06400
-0.3,0.06400
1.0,0.06600
-0.1,0.06600
1.0,0.06800
1.3,0.06800
1.6,0.06800
-0.1,0.07000
-0.1,0.07000
0.3,0.07200
-0.8,0.07200
0.8,0.07400
1.0,0.07400
0.8,0.07400
-2.0,0.07600
0.6,0.07600
1.2,0.07600
0.7,0.07800
-0.3,0.07800
0.1,0.08000
-0.5,0.08000
2.4,0.08200
0.6,0.08200
-0.2,0.08400
1.1,0.08400
1.1,0.08400
1.8,0.08600
0.2,0.08600
-0.2,0.08800
-1.8,0.08800
-2.9,0.09000
-0.6,0.09000
-0.2,0.09000
0.9,0.09200
1.1,0.09200
0.8,0.09200
1.3,0.09400
0.8,0.09400
0.0,0.09600
0.5,0.09600
-2.2,0.09800
0.3,0.09800
-1.5,0.10000
0.3,0.10000
-0.1,0.10000
0.3,0.10200
2.5,0.10200
-0.1,0.10200
0.4,0.10400
1.6,0.10400
-0.8,0.10600
0.4,0.10600
1.3,0.10800
0.7,0.10800
0.2,0.10800
0.8,0.11000
0.8,0.11000
4.5,0.11200
1.8,0.11200
3.0,0.11400
0.9,0.11400
1.9,0.11400
3.9,0.11600
3.1,0.11600
1.7,0.11600
4.3,0.11800
2.8,0.11800
4.5,0.12000
4.3,0.12000
3.0,0.12200
4.7,0.12200
4.6,0.12400
5.8,0.12400
8.9,0.12400
8.6,0.12600
7.6,0.12600
7.2,0.12600
9.7,0.12800
6.9,0.13000
7.0,0.13000
9.7,0.13000
8.1,0.13200
9.6,0.13200
10.1,0.13200
9.1,0.13400
11.5,0.13400
11.6,0.13600
11.5,0.13600
11.5,0.13800
13.1,0.13800
10.2,0.14000
12.7,0.14000
12.3,0.14000
13.0,0.14200
13.1,0.14200
12.0,0.14200
11.9,0.14400
13.0,0.14400
15.6,0.14600
15.9,0.14600
16.6,0.14800
16.3,0.14800
16.3,0.14800
17.6,0.15000
18.5,0.15000
16.2,0.15200
17.3,0.15200
17.3,0.15400
18.0,0.15400
18.5,0.15400
17.4,0.15600
16.7,0.15600
18.5,0.15600
19.4,0.15800
18.4,0.15800
19.5,0.16000
19.6,0.16000
19.2,0.16200
20.4,0.16200
20.3,0.16400
20.5,0.16400
21.0,0.16400
21.5,0.16600
23.0,0.16600
23.7,0.16600
25.6,0.16800
25.2,0.16800
25.8,0.17000
24.5,0.17000
26.0,0.17200
25.5,0.17200
24.8,0.17200
23.7,0.17400
23.4,0.17400
25.4,0.17600
25.3,0.17600
25.3,0.17800
27.0,0.17800
27.3,0.17800
28.6,0.18000
29.5,0.18000
29.1,0.18000
27.5,0.18200
29.7,0.18200
29.2,0.18400
29.8,0.18400
30.3,0.18600
30.6,0.18600
30.9,0.18800
32.9,0.18800
30.7,0.18800
31.0,0.19000
32.3,0.19000
31.3,0.19000
31.5,0.19200
34.0,0.19200
34.2,0.19400
34.9,0.19400
34.1,0.19600
35.0,0.19600
34.2,0.19600
35.6,0.19800
35.8,0.19800
34.2,0.20000
36.5,0.20000
36.7,0.20200
36.5,0.20200
38.7,0.20200
38.1,0.20400
41.0,0.20400
39.4,0.20400
39.8,0.20600
37.7,0.20600
35.7,0.20800
39.5,0.20800
40.4,0.21000
39.8,0.21000
39.7,0.21200
41.2,0.21200
42.7,0.21200
44.1,0.21400
43.6,0.21400
43.9,0.21600
40.4,0.21600
43.3,0.21800
44.5,0.21800
42.9,0.21800
42.2,0.22000
42.8,0.22000
44.2,0.22000
44.7,0.22200
45.5,0.22200
45.0,0.22400
45.5,0.22400
48.2,0.22600
45.3,0.22600
47.0,0.22800
47.9,0.22800
48.1,0.22800
46.9,0.23000
49.1,0.23000
48.7,0.23000
48.5,0.23200
48.8,0.23200
50.4,0.23400
50.6,0.23400
50.1,0.23600
52.2,0.23600
51.5,0.23600
51.9,0.23800
51.8,0.23800
50.5,0.24000
50.5,0.24000
51.4,0.24200
51.9,0.24200
54.5,0.24400
53.9,0.24400
53.7,0.24400
54.6,0.24600
54.5,0.24600
55.8,0.24600
57.3,0.24800
55.1,0.24800
54.8,0.25000
54.2,0.25000
54.2,0.25200
55.9,0.25200
56.3,0.25200
56.8,0.25400
56.0,0.25400
56.0,0.25600
57.4,0.25600
58.3,0.25800
59.2,0.25800
60.1,0.25800
59.6,0.26000
59.4,0.26000
62.4,0.26000
60.2,0.26200
59.9,0.26200
61.1,0.26400
61.7,0.26400
61.7,0.26600
60.1,0.26600
63.6,0.26800
63.8,0.26800
64.9,0.26800
64.4,0.27000
66.7,0.27000
64.6,0.27000
64.3,0.27200
65.6,0.27200
63.2,0.27400
64.1,0.27400
64.1,0.27600
63.8,0.27600
66.9,0.27600
67.9,0.27800
68.2,0.27800
68.7,0.28000
67.9,0.28000
70.1,0.28200
70.4,0.28200
68.2,0.28200
69.4,0.28400
70.0,0.28400
71.1,0.28600
69.7,0.28600
70.3,0.28600
70.6,0.28800
71.8,0.28800
70.5,0.29000
72.2,0.29000
72.4,0.29200
74.0,0.29200
73.9,0.29200
72.3,0.29400
74.5,0.29400
75.5,0.29400
76.3,0.29600
76.3,0.29800
74.8,0.29800
75.5,0.29800
74.5,0.30000
77.4,0.30000
79.0,0.30000
76.8,0.30200
79.7,0.30200
80.2,0.30400
79.7,0.30400
79.0,0.30600
79.8,0.30600
80.3,0.30600
81.4,0.30800
79.0,0.30800
80.2,0.30800
79.7,0.31000
81.2,0.31000
82.2,0.31200
83.0,0.31200
80.5,0.31400
81.7,0.31400
84.2,0.31600
83.7,0.31600
83.6,0.31600
82.2,0.31800
83.4,0.31800
84.8,0.31800
82.5,0.32000
86.1,0.32200
83.7,0.32200
83.5,0.32200
86.2,0.32400
87.2,0.32400
87.0,0.32400
85.5,0.32600
87.0,0.32600
87.3,0.32800
87.4,0.32800
89.0,0.33000
89.9,0.33000
89.7,0.33200
89.2,0.33200
90.5,0.33200
90.8,0.33400
90.6,0.33400
89.8,0.33400
90.3,0.33600
92.9,0.33600
92.5,0.33800
93.2,0.33800
94.3,0.34000
92.6,0.34000
94.8,0.34000
93.1,0.34200
94.3,0.34200
93.6,0.34400
94.0,0.34400
96.5,0.34600
96.5,0.34600
96.9,0.34600
95.1,0.34800
96.8,0.34800
98.5,0.35000
97.1,0.35000
97.5,0.35000
98.2,0.35200
97.6,0.35200
97.5,0.35400
99.3,0.35400
99.8,0.35600
97.5,0.35600
99.9,0.35600
99.9,0.35800
99.9,0.35800
100.2,0.36000
101.1,0.36000
100.3,0.36200
101.1,0.36200
102.2,0.36200
101.5,0.36400
101.3,0.36400
102.6,0.36400
103.2,0.36600
106.1,0.36600
104.6,0.36800
104.4,0.36800
106.7,0.37000
105.9,0.37000
106.6,0.37200
107.9,0.37200
106.4,0.37200
105.1,0.37400
104.8,0.37400
107.9,0.37400
106.7,0.37600
106.6,0.37600
108.4,0.37800
107.2,0.37800
108.8,0.38000
110.1,0.38000
110.6,0.38000
110.2,0.38200
109.7,0.38200
110.9,0.38400
110.6,0.38400
110.1,0.38600
110.0,0.38600
110.0,0.38600
110.2,0.38800
110.3,0.38800
110.7,0.39000
112.4,0.39000
111.7,0.39000
113.2,0.39200
114.6,0.39200
115.2,0.39400
114.7,0.39400
113.2,0.39600
113.4,0.39600
115.9,0.39600
115.2,0.39800
115.5,0.39800
115.0,0.40000
115.4,0.40000
117.9,0.40200
117.7,0.40200
118.2,0.40200
117.9,0.40400
120.4,0.40400
120.8,0.40400
118.7,0.40600
121.4,0.40600
120.5,0.40800
117.3,0.40800
122.1,0.41000
121.5,0.41000
120.1,0.41200
122.2,0.41200
120.0,0.41200
122.5,0.41400
123.1,0.41400
123.6,0.41400
124.6,0.41600
123.4,0.41600
122.4,0.41800
124.2,0.41800
122.9,0.42000
124.3,0.42000
124.3,0.42000
126.7,0.42200
127.9,0.42200
126.3,0.42400
125.6,0.42400
125.7,0.42600
126.9,0.42600
130.3,0.42800
127.4,0.42800
126.7,0.42800
127.5,0.43000
127.4,0.43000
127.5,0.43000
128.1,0.43200
130.4,0.43200
129.8,0.43400
131.3,0.43400
132.0,0.43600
132.4,0.43600
132.5,0.43600
133.2,0.43800
131.5,0.43800
135.1,0.44000
132.0,0.44000
130.5,0.44200
132.3,0.44200
134.3,0.44200
134.9,0.44400
134.3,0.44400
135.1,0.44600
135.6,0.44600
135.1,0.44600
136.9,0.44800
136.1,0.44800
137.7,0.45000
138.7,0.45000
135.0,0.45200
136.2,0.45200
136.2,0.45200
138.9,0.45400
138.9,0.45400
138.6,0.45600
141.2,0.45600
140.7,0.45800
141.0,0.45800
142.2,0.45800
141.8,0.46000
145.7,0.46000
143.6,0.46000
142.1,0.46200
142.1,0.46200
141.0,0.46400
141.3,0.46400
146.7,0.46600
144.5,0.46600
143.0,0.46800
146.0,0.46800
144.3,0.46800
147.1,0.47000
146.1,0.47000
145.0,0.47000
145.3,0.47200
145.1,0.47200
146.2,0.47400
147.3,0.47400
148.2,0.47600
148.4,0.47600
145.7,0.47600
148.5,0.47800
150.6,0.47800
150.7,0.48000
149.7,0.48000
149.7,0.48200
152.1,0.48200
152.5,0.48200
151.5,0.48400
150.9,0.48400
149.8,0.48400
152.0,0.48600
152.7,0.48600
151.7,0.48800
151.4,0.48800
152.0,0.49000
154.8,0.49000
154.2,0.49200
153.7,0.49200
156.1,0.49200
153.2,0.49400
155.6,0.49400
155.6,0.49400
154.7,0.49600
156.2,0.49600
155.4,0.49800
156.4,0.49800
155.1,0.50000
158.0,0.50000
156.9,0.50000
158.9,0.50200
157.8,0.50200
158.7,0.50200
158.9,0.50400
157.8,0.50600
158.3,0.50600
157.9,0.50600
159.6,0.50800
159.7,0.50800
160.9,0.50800
161.0,0.51000
161.1,0.51000
163.3,0.51200
163.6,0.51200
161.7,0.51400
161.3,0.51400
163.0,0.51600
164.0,0.51600
164.3,0.51600
163.4,0.51800
162.6,0.51800
164.7,0.51800
164.3,0.52000
165.9,0.52200
166.3,0.52200
166.9,0.52200
166.5,0.52400
169.4,0.52400
170.4,0.52400
167.4,0.52600
169.3,0.52600
168.5,0.52800
168.3,0.52800
169.5,0.53000
169.3,0.53000
169.5,0.53200
168.6,0.53200
169.0,0.53200
171.5,0.53400
171.9,0.53400
170.5,0.53400
170.7,0.53600
170.9,0.53800
173.4,0.53800
174.9,0.53800
172.7,0.54000
171.4,0.54000
172.8,0.54000
173.6,0.54200
173.7,0.54200
172.7,0.54400
175.3,0.54400
176.0,0.54600
176.9,0.54600
176.8,0.54800
175.1,0.54800
179.2,0.54800
177.5,0.55000
178.6,0.55000
177.6,0.55000
178.7,0.55200
179.1,0.55400
180.3,0.55400
1.8,0.55400


