""
"Test Method","UG Lab Glass 3 Pt Bend mm_N.msm"
"Sample I. D.","Etched.mss"
"Specimen Number","10"

"Load (N)","Crosshead (mm)"

2.2,0.00000
0.1,0.00200
-0.2,0.00200
2.2,0.00200
1.0,0.00400
1.0,0.00400
1.6,0.00600
1.5,0.00600
3.8,0.00800
2.9,0.00800
2.2,0.00800
2.0,0.01000
0.4,0.01000
1.2,0.01000
1.7,0.01200
0.9,0.01400
-0.3,0.01400
1.4,0.01400
3.1,0.01600
1.7,0.01600
2.9,0.01600
1.3,0.01800
1.2,0.01800
1.6,0.02000
3.3,0.02000
1.6,0.02200
1.6,0.02200
0.6,0.02200
0.8,0.02400
1.7,0.02400
2.3,0.02400
0.9,0.02600
0.8,0.02600
0.6,0.02800
1.8,0.02800
2.4,0.03000
1.6,0.03000
-2.0,0.03200
0.6,0.03200
1.5,0.03200
0.4,0.03400
0.5,0.03400
0.8,0.03400
0.4,0.03600
0.7,0.03800
1.6,0.03800
1.3,0.03800
-0.6,0.04000
0.8,0.04000
2.9,0.04000
3.9,0.04200
4.1,0.04200
2.3,0.04400
2.4,0.04400
2.7,0.04600
1.9,0.04600
-0.1,0.04800
1.9,0.04800
1.5,0.04800
3.0,0.05000
4.1,0.05000
4.2,0.05000
1.8,0.05200
-0.5,0.05200
2.0,0.05400
1.5,0.05400
0.3,0.05600
-0.9,0.05600
0.8,0.05600
2.3,0.05800
1.5,0.05800
1.6,0.06000
0.9,0.06000
1.0,0.06200
0.5,0.06200
2.6,0.06400
2.4,0.06400
1.6,0.06400
1.5,0.06600
1.6,0.06600
3.6,0.06600
2.7,0.06800
1.3,0.06800
3.4,0.07000
1.0,0.07000
2.4,0.07200
1.9,0.07200
1.8,0.07200
1.1,0.07400
2.0,0.07400
2.5,0.07600
3.1,0.07600
1.7,0.07800
-0.6,0.07800
0.9,0.07800
1.5,0.08000
1.3,0.08000
2.0,0.08200
3.0,0.08200
0.9,0.08200
3.8,0.08400
3.7,0.08400
3.3,0.08600
3.7,0.08600
3.0,0.08800
1.3,0.08800
0.7,0.08800
0.3,0.09000
1.1,0.09000
1.2,0.09200
0.3,0.09200
2.4,0.09400
2.6,0.09400
3.0,0.09400
0.1,0.09600
2.0,0.09600
2.8,0.09600
2.6,0.09800
0.4,0.09800
1.0,0.10000
2.6,0.10000
2.6,0.10200
2.9,0.10200
2.5,0.10400
2.1,0.10400
0.9,0.10400
1.9,0.10600
3.3,0.10600
3.0,0.10800
2.4,0.10800
1.9,0.11000
1.8,0.11000
0.8,0.11000
1.0,0.11200
2.7,0.11200
1.6,0.11200
1.1,0.11400
0.5,0.11400
0.9,0.11600
1.8,0.11600
1.8,0.11800
4.0,0.11800
3.6,0.12000
2.5,0.12000
1.8,0.12000
1.0,0.12200
2.7,0.12200
2.2,0.12200
0.9,0.12400
0.8,0.12400
1.5,0.12600
1.4,0.12600
3.2,0.12800
3.5,0.12800
2.7,0.12800
0.2,0.13000
1.6,0.13000
2.9,0.13200
2.1,0.13200
0.9,0.13400
2.6,0.13400
0.9,0.13400
1.0,0.13600
0.0,0.13600
3.9,0.13800
0.6,0.13800
2.8,0.13800
1.4,0.14000
1.2,0.14000
5.3,0.14200
1.4,0.14200
3.7,0.14400
3.0,0.14400
0.3,0.14400
1.7,0.14600
0.5,0.14600
-0.6,0.14800
0.2,0.14800
1.1,0.15000
2.7,0.15000
1.6,0.15000
1.4,0.15200
4.1,0.15200
1.8,0.15200
1.9,0.15400
2.5,0.15400
0.6,0.15600
1.8,0.15600
0.9,0.15800
2.0,0.15800
1.3,0.16000
2.8,0.16000
-0.3,0.16000
2.2,0.16200
1.4,0.16200
2.4,0.16200
2.0,0.16400
1.2,0.16400
2.6,0.16600
2.4,0.16600
1.6,0.16800
2.4,0.16800
1.1,0.16800
0.3,0.17000
0.8,0.17000
0.9,0.17200
1.4,0.17200
1.9,0.17400
1.7,0.17400
3.8,0.17600
2.5,0.17600
1.7,0.17600
2.0,0.17800
2.4,0.17800
0.5,0.17800
3.6,0.18000
1.6,0.18000
2.1,0.18200
3.9,0.18200
3.9,0.18400
4.9,0.18400
3.7,0.18400
4.7,0.18600
6.6,0.18600
5.1,0.18800
3.2,0.18800
2.5,0.19000
3.8,0.19000
5.0,0.19000
5.2,0.19200
5.4,0.19200
4.7,0.19200
2.4,0.19400
3.6,0.19400
4.2,0.19600
3.0,0.19600
2.0,0.19800
1.9,0.19800
2.3,0.20000
3.1,0.20000
1.5,0.20000
2.3,0.20200
3.3,0.20200
2.5,0.20200
2.5,0.20400
3.8,0.20600
3.5,0.20600
3.1,0.20600
3.3,0.20800
4.9,0.20800
2.7,0.20800
4.4,0.21000
4.4,0.21000
3.6,0.21200
3.8,0.21200
3.3,0.21400
2.0,0.21400
3.1,0.21400
3.0,0.21600
6.0,0.21600
6.2,0.21800
5.5,0.21800
6.4,0.21800
6.1,0.22000
7.4,0.22000
1.8,0.22200
-0.2,0.22200
0.8,0.22400
1.7,0.22400
2.1,0.22400
2.6,0.22600
3.7,0.22600
2.6,0.22600
3.5,0.22800
3.6,0.22800
4.6,0.23000
4.7,0.23000
6.8,0.23200
3.3,0.23200
2.6,0.23200
4.1,0.23400
3.9,0.23400
2.6,0.23600
2.1,0.23600
2.4,0.23800
5.3,0.23800
3.9,0.24000
4.7,0.24000
4.8,0.24000
3.2,0.24200
5.7,0.24200
5.2,0.24200
3.6,0.24400
5.5,0.24400
4.3,0.24600
3.3,0.24600
6.1,0.24800
5.2,0.24800
4.9,0.24800
7.6,0.25000
7.5,0.25000
7.7,0.25200
9.0,0.25200
8.8,0.25400
8.7,0.25400
10.7,0.25400
9.4,0.25600
10.0,0.25600
7.8,0.25600
8.6,0.25800
10.0,0.25800
9.3,0.26000
12.1,0.26000
12.0,0.26200
10.8,0.26200
11.9,0.26400
11.6,0.26400
10.8,0.26400
12.4,0.26600
10.8,0.26600
10.9,0.26600
11.7,0.26800
13.6,0.27000
13.1,0.27000
12.5,0.27000
14.2,0.27200
15.9,0.27200
15.3,0.27200
15.2,0.27400
16.0,0.27400
14.8,0.27600
16.5,0.27600
15.7,0.27800
16.0,0.27800
15.8,0.28000
14.4,0.28000
15.9,0.28000
17.0,0.28200
14.6,0.28200
17.7,0.28200
19.3,0.28400
18.5,0.28400
19.9,0.28600
18.5,0.28600
21.0,0.28800
18.9,0.28800
19.6,0.28800
21.0,0.29000
20.2,0.29000
22.2,0.29200
20.9,0.29200
22.9,0.29400
25.0,0.29400
26.0,0.29600
23.3,0.29600
22.3,0.29600
24.8,0.29800
23.4,0.29800
23.5,0.29800
22.2,0.30000
23.2,0.30000
24.1,0.30200
24.8,0.30200
23.3,0.30400
24.6,0.30400
25.3,0.30400
25.7,0.30600
25.7,0.30600
25.9,0.30800
26.9,0.30800
27.8,0.31000
26.9,0.31000
26.8,0.31000
25.7,0.31200
25.7,0.31200
25.9,0.31400
24.9,0.31400
26.8,0.31400
27.3,0.31600
26.5,0.31600
26.8,0.31800
28.3,0.31800
27.4,0.32000
28.7,0.32000
29.2,0.32000
28.8,0.32200
29.9,0.32200
30.7,0.32200
27.0,0.32400
29.7,0.32400
30.0,0.32600
28.0,0.32600
30.8,0.32800
32.3,0.32800
30.8,0.32800
32.3,0.33000
31.3,0.33000
32.8,0.33200
33.0,0.33200
32.6,0.33400
33.2,0.33400
32.1,0.33400
32.7,0.33600
36.1,0.33600
34.3,0.33600
34.5,0.33800
35.2,0.33800
35.3,0.34000
37.0,0.34000
36.3,0.34200
35.2,0.34200
36.7,0.34400
35.1,0.34400
36.7,0.34400
38.6,0.34600
36.8,0.34600
36.1,0.34600
36.4,0.34800
37.7,0.34800
38.7,0.35000
36.2,0.35000
40.3,0.35200
38.6,0.35200
41.1,0.35200
41.0,0.35400
41.3,0.35400
40.6,0.35600
43.1,0.35600
41.6,0.35800
40.1,0.35800
42.4,0.35800
42.9,0.36000
43.3,0.36000
43.9,0.36000
43.0,0.36200
44.3,0.36200
44.4,0.36400
44.3,0.36400
45.0,0.36600
43.8,0.36600
45.5,0.36800
44.3,0.36800
45.2,0.36800
45.4,0.37000
45.8,0.37000
47.0,0.37000
45.3,0.37200
47.3,0.37400
48.3,0.37400
49.3,0.37400
48.3,0.37600
48.4,0.37600
48.0,0.37600
50.8,0.37800
52.7,0.37800
50.6,0.38000
50.0,0.38000
49.7,0.38200
49.9,0.38200
53.1,0.38400
53.8,0.38400
53.7,0.38400
51.0,0.38600
53.8,0.38600
54.1,0.38600
53.2,0.38800
52.5,0.39000
51.5,0.39000
53.4,0.39000
52.9,0.39200
54.5,0.39200
54.4,0.39200
56.1,0.39400
54.8,0.39400
56.1,0.39600
57.5,0.39600
57.2,0.39800
55.8,0.39800
56.5,0.40000
59.4,0.40000
58.0,0.40000
58.0,0.40200
55.5,0.40200
58.3,0.40200
59.6,0.40400
60.8,0.40400
60.8,0.40600
60.8,0.40600
58.9,0.40800
62.7,0.40800
63.3,0.40800
63.3,0.41000
62.8,0.41000
61.7,0.41200
61.7,0.41200
65.0,0.41400
64.8,0.41400
64.5,0.41400
62.7,0.41600
65.4,0.41600
65.7,0.41800
65.9,0.41800
66.5,0.41800
67.0,0.42000
66.5,0.42000
65.7,0.42200
65.6,0.42200
66.8,0.42400
64.6,0.42400
66.3,0.42400
68.2,0.42600
68.9,0.42600
70.1,0.42600
72.0,0.42800
71.1,0.43000
70.2,0.43000
69.9,0.43000
70.5,0.43200
70.9,0.43200
70.2,0.43200
72.5,0.43400
74.3,0.43400
72.1,0.43600
73.5,0.43600
72.4,0.43800
72.3,0.43800
75.3,0.44000
74.5,0.44000
74.2,0.44000
74.5,0.44200
74.0,0.44200
76.5,0.44200
76.0,0.44400
76.0,0.44400
76.6,0.44600
76.4,0.44600
79.2,0.44800
79.0,0.44800
77.8,0.44800
78.4,0.45000
78.7,0.45000
81.5,0.45200
79.3,0.45200
79.1,0.45400
80.8,0.45400
81.0,0.45400
80.2,0.45600
79.9,0.45600
79.7,0.45600
80.2,0.45800
82.7,0.45800
82.1,0.46000
83.5,0.46000
84.3,0.46200
83.3,0.46200
82.2,0.46400
85.8,0.46400
84.2,0.46400
85.8,0.46600
83.9,0.46600
84.4,0.46600
84.2,0.46800
85.6,0.47000
87.4,0.47000
85.7,0.47000
86.0,0.47200
89.0,0.47200
88.4,0.47200
88.2,0.47400
87.7,0.47400
87.1,0.47600
87.8,0.47600
88.2,0.47800
88.4,0.47800
89.1,0.48000
90.2,0.48000
89.4,0.48000
90.7,0.48200
90.6,0.48200
91.7,0.48200
90.0,0.48400
91.0,0.48600
93.6,0.48600
94.8,0.48600
94.6,0.48800
93.3,0.48800
92.8,0.48800
95.3,0.49000
92.3,0.49000
95.2,0.49200
92.6,0.49200
93.1,0.49400
94.6,0.49400
96.5,0.49400
96.0,0.49600
98.1,0.49600
95.9,0.49800
97.8,0.49800
98.3,0.49800
97.9,0.50000
97.4,0.50000
97.7,0.50200
99.3,0.50200
99.2,0.50400
98.8,0.50400
100.1,0.50400
98.3,0.50600
101.6,0.50600
99.5,0.50600
100.7,0.50800
101.6,0.51000
100.3,0.51000
100.3,0.51000
102.3,0.51200
103.1,0.51200
102.7,0.51200
102.6,0.51400
106.0,0.51400
104.8,0.51600
106.7,0.51600
104.6,0.51800
106.2,0.51800
106.0,0.51800
105.1,0.52000
107.7,0.52000
108.0,0.52200
106.0,0.52200
107.4,0.52200
107.0,0.52400
107.1,0.52400
108.5,0.52600
107.5,0.52600
110.0,0.52800
111.7,0.52800
110.1,0.52800
111.2,0.53000
108.7,0.53000
108.3,0.53000
112.5,0.53200
110.1,0.53400
110.2,0.53400
110.8,0.53400
110.6,0.53600
111.6,0.53600
112.0,0.53600
113.7,0.53800
113.0,0.53800
114.0,0.54000
115.1,0.54000
115.7,0.54200
116.5,0.54200
114.6,0.54400
114.3,0.54400
115.5,0.54400
117.8,0.54600
115.8,0.54600
116.3,0.54600
115.9,0.54800
117.0,0.54800
118.8,0.55000
119.3,0.55000
119.3,0.55200
118.1,0.55200
118.7,0.55200
120.5,0.55400
118.3,0.55400
119.6,0.55600
118.6,0.55600
120.8,0.55800
121.9,0.55800
121.4,0.55800
119.2,0.56000
122.8,0.56000
123.3,0.56200
122.5,0.56200
124.5,0.56200
123.2,0.56400
124.5,0.56400
123.2,0.56600
123.7,0.56600
123.7,0.56800
125.2,0.56800
126.5,0.56800
126.2,0.57000
126.9,0.57000
126.9,0.57200
128.2,0.57200
126.3,0.57400
128.0,0.57400
128.2,0.57400
130.6,0.57600
130.6,0.57600
127.2,0.57600
128.2,0.57800
130.1,0.57800
130.4,0.58000
131.3,0.58000
130.8,0.58200
129.8,0.58200
132.4,0.58400
133.5,0.58400
132.1,0.58400
130.5,0.58600
131.6,0.58600
131.9,0.58600
133.5,0.58800
133.0,0.59000
133.6,0.59000
132.7,0.59000
133.7,0.59200
133.9,0.59200
133.1,0.59200
135.2,0.59400
135.4,0.59400
134.9,0.59600
136.9,0.59600
137.8,0.59800
138.3,0.59800
138.5,0.60000
135.8,0.60000
136.8,0.60000
138.6,0.60200
138.4,0.60200
139.1,0.60200
136.9,0.60400
140.7,0.60400
141.1,0.60600
140.3,0.60600
141.1,0.60800
139.6,0.60800
140.4,0.60800
140.8,0.61000
140.0,0.61000
141.6,0.61200
141.7,0.61200
143.8,0.61400
144.5,0.61400
144.7,0.61400
143.3,0.61600
143.6,0.61600
144.9,0.61800
146.1,0.61800
144.8,0.61800
144.4,0.62000
144.0,0.62000
146.7,0.62200
147.0,0.62200
145.9,0.62400
147.4,0.62400
146.3,0.62400
147.1,0.62600
148.4,0.62600
150.3,0.62600
149.8,0.62800
149.5,0.63000
150.7,0.63000
151.2,0.63000
151.2,0.63200
150.7,0.63200
149.5,0.63200
151.4,0.63400
151.9,0.63400
151.9,0.63600
151.1,0.63600
153.9,0.63800
151.7,0.63800
154.2,0.64000
155.4,0.64000
154.8,0.64000
155.6,0.64200
156.1,0.64200
157.6,0.64200
157.1,0.64400
156.6,0.64400
156.1,0.64600
155.6,0.64600
158.4,0.64800
159.6,0.64800
156.3,0.64800
157.5,0.65000
157.7,0.65000
159.8,0.65000
159.2,0.65200
159.9,0.65200
161.2,0.65400
159.7,0.65400
160.4,0.65600
161.0,0.65600
161.5,0.65600
162.6,0.65800
161.2,0.65800
162.5,0.66000
162.8,0.66000
162.7,0.66200
163.8,0.66200
163.0,0.66200
163.8,0.66400
165.6,0.66400
165.4,0.66400
164.0,0.66600
165.7,0.66600
165.4,0.66800
166.8,0.66800
166.1,0.67000
165.6,0.67000
166.1,0.67200
166.2,0.67200
167.2,0.67200
169.3,0.67400
170.1,0.67400
168.4,0.67600
168.7,0.67600
168.4,0.67800
170.4,0.67800
169.6,0.67800
169.3,0.68000
171.1,0.68000
170.5,0.68000
170.0,0.68200
173.4,0.68200
173.4,0.68400
172.9,0.68400
173.9,0.68600
175.3,0.68600
175.2,0.68800
174.5,0.68800
174.3,0.68800
175.5,0.69000
175.8,0.69000
176.0,0.69000
175.9,0.69200
176.7,0.69200
176.3,0.69400
179.5,0.69400
178.7,0.69600
178.5,0.69600
178.5,0.69600
176.0,0.69800
177.8,0.69800
179.3,0.70000
177.1,0.70000
179.3,0.70200
178.1,0.70200
179.9,0.70400
179.4,0.70400
181.8,0.70400
183.0,0.70600
182.4,0.70600
182.9,0.70600
181.0,0.70800
182.3,0.70800
183.6,0.71000
184.0,0.71000
183.2,0.71200
182.9,0.71200
182.9,0.71200
184.9,0.71400
186.0,0.71400
184.3,0.71600
187.2,0.71600
186.3,0.71800
187.9,0.71800
186.5,0.71800
189.7,0.72000
189.4,0.72000
188.4,0.72000
187.6,0.72200
187.6,0.72200
189.6,0.72400
189.9,0.72400
189.0,0.72600
189.2,0.72600
189.8,0.72800
188.8,0.72800
189.9,0.72800
190.1,0.73000
191.6,0.73000
190.4,0.73000
193.1,0.73200
193.2,0.73400
189.6,0.73400
192.7,0.73400
192.9,0.73600
193.4,0.73600
195.6,0.73600
195.5,0.73800
195.7,0.73800
194.8,0.74000
194.5,0.74000
196.1,0.74200
195.3,0.74200
194.8,0.74400
196.2,0.74400
197.1,0.74400
197.6,0.74600
198.1,0.74600
200.1,0.74600
199.8,0.74800
199.9,0.74800
200.9,0.75000
201.5,0.75000
202.2,0.75200
200.5,0.75200
200.7,0.75200
201.6,0.75400
201.4,0.75400
202.3,0.75600
199.8,0.75600
201.2,0.75800
203.1,0.75800
202.7,0.75800
203.6,0.76000
203.8,0.76000
203.0,0.76000
204.0,0.76200
205.6,0.76200
205.9,0.76400
205.9,0.76400
208.1,0.76600
204.8,0.76600
205.0,0.76800
205.8,0.76800
206.6,0.76800
205.6,0.77000
207.3,0.77000
208.2,0.77000
209.1,0.77200
209.1,0.77200
210.0,0.77400
210.3,0.77400
210.9,0.77600
210.2,0.77600
209.1,0.77600
211.6,0.77800
210.0,0.77800
211.3,0.78000
210.7,0.78000
212.6,0.78200
211.5,0.78200
213.8,0.78200
215.2,0.78400
214.3,0.78400
214.9,0.78600
214.4,0.78600
213.4,0.78600
214.1,0.78800
213.8,0.78800
214.7,0.79000
214.6,0.79000
216.1,0.79200
215.3,0.79200
216.8,0.79200
217.3,0.79400
218.5,0.79400
219.0,0.79600
218.0,0.79600
219.3,0.79800
221.8,0.79800
220.9,0.79800
218.1,0.80000
219.9,0.80000
219.2,0.80200
219.3,0.80200
220.4,0.80200
219.5,0.80400
220.4,0.80400
222.3,0.80600
224.2,0.80600
224.3,0.80800
224.4,0.80800
223.7,0.80800
223.5,0.81000
225.5,0.81000
225.4,0.81200
225.9,0.81200
1.6,0.81400
1.6,0.81400


