""
"Test Method","UG Lab Glass 3 Pt Bend mm_N.msm"
"Sample I. D.","Tempered.mss"
"Specimen Number","3"

"Load (N)","Crosshead (mm)"

-3.2,0.00000
-3.9,0.00200
-3.2,0.00400
-5.5,0.00600
-4.5,0.00600
-3.2,0.00800
-3.4,0.01000
-3.7,0.01200
-5.1,0.01400
-3.6,0.01600
-4.1,0.01600
-4.8,0.01800
-4.9,0.02000
-3.6,0.02200
-3.3,0.02400
-4.3,0.02600
-6.0,0.02800
-2.9,0.02800
-4.3,0.03000
-4.6,0.03200
-2.7,0.03400
-4.1,0.03600
-4.9,0.03800
-5.3,0.03800
-3.2,0.04000
-2.9,0.04200
-3.1,0.04400
-3.3,0.04600
-4.6,0.04600
-3.6,0.04800
-3.6,0.05000
-4.6,0.05200
-2.4,0.05400
-2.9,0.05600
-5.4,0.05600
-3.3,0.05800
-4.4,0.06000
-4.3,0.06200
-4.9,0.06400
-4.7,0.06400
-4.9,0.06800
-3.3,0.06800
-4.9,0.07000
-5.3,0.07200
-5.5,0.07400
-3.8,0.07600
-5.5,0.07800
-4.1,0.07800
-4.5,0.08000
-5.4,0.08200
-4.6,0.08400
-5.1,0.08600
-4.6,0.08600
-3.9,0.08800
-2.8,0.09000
-2.0,0.09200
-3.6,0.09400
-3.0,0.09600
-1.8,0.09600
-2.6,0.09800
-2.8,0.10000
-4.0,0.10200
-3.2,0.10400
-2.0,0.10600
-3.2,0.10800
-3.2,0.10800
-2.9,0.11000
-2.2,0.11200
-3.3,0.11400
-4.4,0.11600
-4.7,0.11800
-4.1,0.11800
-4.3,0.12000
-2.9,0.12200
-4.1,0.12400
-6.5,0.12600
-3.8,0.12600
-5.4,0.12800
-5.2,0.13000
-3.5,0.13200
-4.6,0.13400
-4.0,0.13600
-6.0,0.13800
-3.1,0.14000
-2.0,0.14000
-3.1,0.14200
-2.7,0.14400
-3.7,0.14600
-4.5,0.14800
-4.1,0.15000
-4.7,0.15000
-4.3,0.15200
-5.3,0.15400
-5.2,0.15600
-2.9,0.15800
-4.3,0.15800
-3.1,0.16000
-4.7,0.16200
-3.4,0.16400
-3.6,0.16600
-4.3,0.16600
-3.3,0.16800
-5.0,0.17000
-2.5,0.17200
-2.6,0.17400
-2.8,0.17600
-2.4,0.17600
-3.7,0.17800
-3.1,0.18000
-4.6,0.18200
-4.3,0.18400
-3.6,0.18600
-1.6,0.18800
-2.2,0.18800
-3.4,0.19000
-3.9,0.19200
-5.4,0.19400
-3.1,0.19600
-2.3,0.19600
-2.0,0.19800
-2.5,0.20000
-2.6,0.20200
-2.7,0.20400
-2.2,0.20600
-3.2,0.20600
-3.3,0.20800
-5.1,0.21000
-2.0,0.21200
-4.4,0.21400
-4.0,0.21400
-4.9,0.21600
-5.6,0.21800
-4.6,0.22000
-2.4,0.22200
-4.3,0.22400
-2.7,0.22400
-3.8,0.22600
-3.3,0.22800
-5.0,0.23000
-5.1,0.23200
-5.2,0.23400
-5.2,0.23600
-4.7,0.23600
-5.0,0.23800
-2.7,0.24000
-4.1,0.24200
-4.7,0.24400
-3.5,0.24600
-3.8,0.24600
-3.9,0.24800
-2.9,0.25000
-4.1,0.25200
-4.1,0.25400
-2.6,0.25600
-2.9,0.25600
-5.0,0.25800
-4.7,0.26000
-4.7,0.26200
-1.9,0.26400
-3.8,0.26600
-4.1,0.26800
-4.0,0.26800
-4.8,0.27000
-2.9,0.27200
-3.1,0.27400
-3.6,0.27600
-3.1,0.27800
-3.8,0.27800
-3.2,0.28000
-4.1,0.28200
-3.6,0.28400
-3.5,0.28600
-4.1,0.28600
-3.7,0.28800
-3.6,0.29000
-7.5,0.29200
-1.8,0.29400
-4.2,0.29400
-1.6,0.29600
-2.2,0.29800
-4.3,0.30000
-2.4,0.30200
-5.1,0.30400
-4.4,0.30400
-4.2,0.30600
-4.0,0.30800
-3.0,0.31000
-3.1,0.31200
-2.4,0.31400
-5.2,0.31600
-5.9,0.31800
-4.6,0.31800
-3.4,0.32000
-4.0,0.32200
-4.0,0.32400
-3.2,0.32600
-4.6,0.32600
-4.9,0.32800
-4.7,0.33000
-1.5,0.33200
-2.6,0.33400
-2.4,0.33400
-3.5,0.33600
-5.0,0.33800
-3.1,0.34000
-3.1,0.34200
-2.7,0.34400
-4.9,0.34400
-2.2,0.34600
-1.8,0.34800
-3.8,0.35000
-3.4,0.35200
-1.7,0.35400
-5.6,0.35600
-1.2,0.35600
-2.8,0.35800
-6.0,0.36000
-4.9,0.36200
-5.4,0.36400
-1.4,0.36600
-3.2,0.36600
-2.3,0.36800
-2.5,0.37000
-4.4,0.37200
-2.3,0.37400
-1.8,0.37400
-3.2,0.37600
-1.6,0.37800
-0.6,0.38000
-1.3,0.38200
0.5,0.38400
-1.7,0.38400
1.1,0.38600
0.9,0.38800
2.8,0.39000
1.8,0.39200
3.2,0.39400
2.9,0.39600
5.0,0.39800
5.2,0.39800
5.6,0.40000
5.9,0.40200
5.7,0.40400
6.9,0.40600
7.0,0.40600
8.2,0.40800
8.8,0.41000
10.8,0.41200
11.5,0.41400
9.9,0.41600
12.5,0.41600
13.2,0.41800
16.1,0.42000
15.1,0.42200
15.0,0.42400
15.9,0.42600
16.5,0.42800
15.5,0.42800
17.8,0.43000
18.9,0.43200
21.7,0.43400
20.3,0.43600
22.3,0.43800
22.2,0.43800
22.0,0.44000
24.7,0.44200
22.7,0.44400
24.0,0.44600
24.6,0.44600
24.9,0.44800
25.9,0.45000
27.2,0.45200
26.1,0.45400
28.9,0.45600
28.1,0.45600
28.2,0.46000
28.3,0.46000
28.5,0.46200
30.0,0.46400
32.1,0.46600
33.3,0.46800
32.1,0.47000
33.5,0.47000
32.8,0.47200
34.5,0.47400
34.0,0.47600
37.8,0.47800
35.7,0.47800
37.6,0.48000
37.7,0.48200
37.3,0.48400
39.5,0.48600
39.7,0.48600
41.3,0.48800
40.5,0.49000
41.7,0.49200
42.9,0.49400
43.5,0.49400
42.8,0.49600
44.2,0.49800
46.4,0.50000
47.6,0.50200
45.2,0.50400
46.8,0.50400
47.0,0.50800
48.6,0.50800
50.5,0.51000
48.8,0.51200
48.4,0.51400
52.5,0.51600
49.0,0.51600
51.1,0.51800
52.1,0.52000
52.0,0.52200
53.4,0.52400
51.9,0.52600
53.1,0.52600
54.8,0.52800
55.4,0.53000
57.1,0.53200
56.9,0.53400
56.6,0.53400
58.4,0.53600
58.5,0.53800
60.0,0.54000
60.0,0.54200
62.1,0.54400
60.6,0.54400
62.4,0.54600
65.0,0.54800
63.3,0.55000
64.8,0.55200
65.4,0.55400
66.0,0.55600
65.9,0.55600
66.3,0.55800
68.5,0.56000
66.7,0.56200
69.4,0.56400
68.9,0.56600
71.1,0.56600
70.3,0.56800
70.9,0.57000
70.9,0.57200
72.2,0.57400
75.6,0.57400
75.7,0.57600
74.9,0.57800
76.2,0.58000
76.9,0.58200
77.6,0.58400
78.3,0.58400
81.0,0.58800
82.8,0.58800
80.4,0.59000
81.6,0.59200
80.2,0.59400
82.6,0.59600
83.0,0.59600
84.8,0.59800
83.9,0.60000
84.6,0.60200
86.4,0.60400
84.9,0.60600
86.0,0.60600
89.0,0.60800
87.7,0.61000
88.0,0.61200
89.8,0.61400
88.9,0.61400
90.5,0.61600
91.4,0.61800
92.8,0.62000
92.9,0.62200
92.8,0.62400
94.7,0.62400
95.2,0.62600
93.1,0.62800
95.8,0.63000
96.0,0.63200
98.3,0.63400
97.9,0.63600
98.0,0.63600
99.5,0.63800
98.7,0.64000
100.0,0.64200
101.7,0.64400
101.7,0.64600
103.3,0.64600
102.6,0.64800
102.1,0.65000
104.8,0.65200
106.8,0.65400
107.6,0.65600
106.4,0.65600
107.1,0.65800
108.7,0.66000
109.3,0.66200
110.8,0.66400
110.9,0.66400
111.5,0.66800
112.5,0.66800
111.3,0.67000
113.6,0.67200
113.8,0.67400
114.7,0.67600
116.8,0.67800
116.7,0.67800
118.6,0.68000
115.5,0.68200
119.2,0.68400
117.3,0.68600
119.9,0.68600
120.4,0.68800
122.3,0.69000
119.8,0.69200
122.3,0.69400
123.2,0.69400
124.3,0.69600
126.9,0.69800
124.7,0.70000
125.6,0.70200
124.9,0.70400
124.1,0.70400
127.4,0.70600
127.5,0.70800
127.5,0.71000
130.0,0.71200
128.5,0.71400
129.4,0.71600
130.3,0.71600
131.5,0.71800
133.3,0.72000
134.0,0.72200
135.8,0.72400
135.4,0.72600
131.5,0.72600
136.4,0.72800
137.8,0.73000
140.2,0.73200
139.8,0.73400
139.7,0.73400
141.0,0.73600
141.1,0.73800
142.7,0.74000
141.3,0.74200
143.6,0.74400
144.1,0.74400
143.3,0.74800
143.2,0.74800
145.7,0.75000
144.6,0.75200
149.3,0.75400
146.1,0.75600
147.2,0.75800
149.6,0.75800
147.3,0.76000
150.8,0.76200
151.1,0.76400
152.3,0.76600
149.8,0.76600
152.6,0.76800
154.7,0.77000
154.0,0.77200
153.9,0.77400
156.9,0.77600
156.1,0.77600
156.1,0.77800
157.5,0.78000
156.6,0.78200
160.1,0.78400
159.3,0.78600
159.2,0.78800
161.8,0.78800
161.5,0.79000
163.1,0.79200
163.2,0.79400
163.6,0.79600
163.6,0.79800
167.5,0.79800
165.9,0.80000
168.0,0.80200
166.0,0.80400
167.2,0.80600
169.6,0.80600
171.3,0.80800
171.3,0.81000
171.4,0.81200
172.0,0.81400
171.0,0.81600
172.9,0.81600
173.8,0.81800
174.1,0.82000
174.7,0.82200
174.8,0.82400
174.2,0.82400
175.8,0.82800
175.2,0.82800
177.6,0.83000
178.9,0.83200
177.9,0.83400
180.4,0.83600
181.2,0.83600
181.5,0.83800
181.4,0.84000
182.9,0.84200
183.4,0.84400
182.5,0.84600
183.9,0.84600
184.0,0.84800
185.3,0.85000
185.9,0.85200
186.7,0.85400
187.4,0.85400
189.3,0.85600
189.1,0.85800
189.6,0.86000
188.9,0.86200
188.9,0.86400
192.5,0.86400
191.8,0.86800
194.1,0.86800
195.0,0.87000
191.8,0.87200
195.7,0.87400
194.6,0.87600
197.0,0.87800
198.8,0.87800
198.0,0.88000
199.8,0.88200
199.1,0.88400
198.5,0.88600
200.3,0.88600
202.3,0.88800
202.5,0.89000
201.1,0.89200
201.9,0.89400
203.3,0.89400
203.9,0.89600
204.5,0.89800
206.1,0.90000
206.2,0.90200
209.8,0.90400
206.6,0.90400
209.5,0.90800
210.4,0.90800
208.5,0.91000
212.7,0.91200
214.2,0.91400
212.5,0.91600
213.2,0.91800
212.5,0.91800
214.7,0.92000
215.2,0.92200
215.5,0.92400
218.4,0.92600
217.1,0.92600
218.3,0.92800
218.0,0.93000
218.5,0.93200
220.0,0.93400
220.1,0.93600
222.4,0.93600
221.8,0.93800
219.8,0.94000
223.9,0.94200
224.9,0.94400
225.8,0.94600
226.5,0.94800
225.6,0.94800
227.4,0.95000
226.4,0.95200
228.5,0.95400
230.0,0.95600
230.8,0.95800
230.0,0.95800
230.9,0.96000
231.0,0.96200
231.9,0.96400
232.6,0.96600
234.7,0.96600
234.7,0.96800
233.8,0.97000
236.2,0.97200
234.9,0.97400
238.9,0.97600
239.0,0.97600
237.9,0.97800
238.8,0.98000
239.0,0.98200
242.0,0.98400
240.2,0.98600
240.4,0.98800
244.1,0.98800
241.7,0.99000
243.0,0.99200
243.9,0.99400
241.9,0.99600
243.5,0.99800
245.5,0.99800
247.7,1.00000
249.3,1.00200
250.3,1.00400
250.2,1.00600
251.4,1.00600
249.9,1.00800
251.8,1.01000
252.8,1.01200
252.4,1.01400
253.3,1.01400
18.1,1.01600


